{
	"id": "e19673b9-e5da-4e29-8725-3f36af84c9fb",
	"name": "SSSR_TEST",
	"values": [
		{
			"key": "host",
			"value": "superhero.qa-test.csssr.com",
			"enabled": true
		},
		{
			"key": "id",
			"value": "",
			"enabled": true
		},
		{
			"key": "gender",
			"value": "",
			"enabled": true
		},
		{
			"key": "birthDate",
			"value": "",
			"enabled": true
		},
		{
			"key": "mainSkill",
			"value": "",
			"enabled": true
		}
	],
	"_postman_variable_scope": "environment",
	"_postman_exported_at": "2021-07-20T09:20:44.016Z",
	"_postman_exported_using": "Postman/8.5.1"
}